[gd_scene load_steps=3 format=2]

[ext_resource path="res://icon.png" type="Texture" id=1]
[ext_resource path="res://TriangleAreaLocked.gd" type="Script" id=2]

[node name="TriangleAreaLocked" type="Node2D"]
position = Vector2( 621, 282 )
script = ExtResource( 2 )

[node name="A1" type="Sprite" parent="."]
modulate = Color( 0, 0.0431373, 0.392157, 1 )
position = Vector2( -173, 24 )
texture = ExtResource( 1 )

[node name="A2" type="Sprite" parent="."]
modulate = Color( 0, 0.0431373, 0.392157, 1 )
position = Vector2( 85, 128 )
texture = ExtResource( 1 )

[node name="A3" type="Sprite" parent="."]
modulate = Color( 0, 0.0431373, 0.392157, 1 )
position = Vector2( 57, -112 )
texture = ExtResource( 1 )
